{
      "termId":"380000000000",
      "cards": [{"id":"5678"}, {"id":"5656"}],
      "stops": [
                        {"name":"магазин 'Наталка", "lat":"30.130681", "lng":"49.774565"},
                        {"name":"вул. Вернадського","lat":"30.125155","lng":"49.773026"},
                        {"name":"Районна лікарня","lat":"30.122484","lng":"49.774343"},
                        {"name":"Південний ринок", "lat":"30.120778", "lng":"49.776678"},
                        {"name":"ТОВ 'Царина'","lat":"30.121411","lng":"49.779283"},
                        {"name":"Газконтора", "lat":"30.127162", "lng":"49.787402"},
                        {"name":"Школа №3","lat":"30.129597","lng":"49.790089"},
                        {"name":"Військкомат", "lat":"30.132226", "lng":"49.793871"},
                        {"name":"завод 'Сільмаш'","lat":"30.132977","lng":"49.796226"},
                        {"name":"Міська лікарня №1", "lat":"30.124340", "lng":"49.803206"},
                        {"name":"завод 'Поліс'", "lat":"30.120939","lng":"49.809015"},
                        {"name":"вул. Воєводіна", "lat":"30.116358", "lng":"49.810725"},
                        {"name":"Залізничний вокзал","lat":"30.111337","lng":"49.812505"},
                        {"name":"Кафетерій", "lat":"30.105919", "lng":"49.817655"},
                        {"name":"вул. Павла Поповича","lat":"30.107346","lng":"49.821172"},
                        {"name":"Зеленгосп", "lat":"30.108354", "lng":"49.823505"},
                        {"name":"Терезинська","lat":"30.109620","lng":"49.825069"},
                        {"name":"Автобусний парк","lat":"49.823920","lng":"30.116540"},
                        {"name":"Водоканал","lat":"30.121615","lng":"49.8230069"},
                        {"name":"м/н Сухий Яр ","lat":"30.132784","lng":"49.820265"},
]